…
There are almost 20 animals that have more than one entry for their
`name` / `entry_date` combination. I will visually inspect these
duplicates and select the entry for each that seems most accurate.

``` r
all_cetacean_data %>% 
  filter(name %in% duplicate_entries) %>% 
  select(name, id, entry_date, official_id, everything()) %>% 
  arrange(name, entry_date)
```

    ## # A tibble: 52 x 22
    ##    name     id entry_date official_id species sex   accuracy birth_year
    ##    <chr> <dbl> <date>     <chr>       <chr>   <chr> <chr>    <date>    
    ##  1 alia    199 2007-12-04 NOA0006436… Bottle… F     a        2007-01-01
    ##  2 alia    607 2007-12-04 NOA0006436… Bottle… F     a        2007-01-01
    ##  3 bodie   236 2010-06-07 NOA0006642… Bottle… M     a        2010-01-01
    ##  4 bodie   609 2010-06-07 NOA0006642… Bottle… M     a        2010-01-01
    ##  5 bodie   304 2014-10-17 NOA0010183… Bottle… M     a        2014-01-01
    ##  6 kai'…    66 1996-10-03 NOA0003746… Bottle… M     a        1996-01-01
    ##  7 kai'…   603 1996-10-03 NOA0003746… Bottle… M     a        1996-01-01
    ##  8 khloe   201 2008-04-18 NOA0006454… Bottle… F     a        2008-01-01
    ##  9 khloe   608 2008-04-18 NOA0006454… Bottle… F     a        2008-01-01
    ## 10 laza…   511 2002-07-19 NOA006134,… Bottle… M     e        NA        
    ## # … with 42 more rows, and 14 more variables: acquisition <chr>,
    ## #   origin_date <date>, origin_loc <chr>, mother <chr>, father <chr>,
    ## #   transfers <chr>, currently <chr>, region <chr>, status <chr>,
    ## #   status_date <date>, cod <chr>, notes <chr>, transfer_date <date>,
    ## #   transfer <chr>
…
``` r
transfer_data_parks <- 
  transfer_data %>% 
  filter(!map_lgl(location, ~ str_detect(., natural_locs) %>% any()))
transfer_data_parks %>% 
  count(location) %>% 
  arrange(location)
```

    ## # A tibble: 122 x 2
    ##    location                       n
    ##    <chr>                      <int>
    ##  1 Animal Wonderland              2
    ##  2 Aquatic Mammal Enterprises     3
    ##  3 Aquatica Orlando               7
    ##  4 Audubon Zoo                    3
    ##  5 Brookfield Zoo                40
    ##  6 Busch Gardens Tampa           16
    ##  7 Clearwater Marine Aquarium    10
    ##  8 Discovery Cove                91
    ##  9 Dolfinarium Harderwijk         5
    ## 10 Dolphin Academy                1
    ## # … with 112 more rows
…
